{
  "project_info": {
    "project_number": "525159681801",
    "project_id": "firebase-itsnews"
  },
  "client": [
    {
      "client_info": {
        "mobilesdk_app_id": "1:525159681801:android:7d9bc01826230018",
        "android_client_info": {
          "package_name": "utility.com.itsnews"
        }
      },
      "oauth_client": [
        {
          "client_id": "525159681801-sqbt3pgkoi5a60g0l8rlg75ekvbgfv35.apps.googleusercontent.com",
          "client_type": 3
        },
        {
          "client_id": "525159681801-pvf4k9vd9air5vrafd9ien440e662isu.apps.googleusercontent.com",
          "client_type": 1,
          "android_info": {
            "package_name": "utility.com.itsnews",
            "certificate_hash": "8698b70cf2973988d10c77404f00fab1ec5e8779"
          }
        }
      ],
      "api_key": [
        {
          "current_key": "AIzaSyC0PTrIcEjcGyCOKqdjqjEmRN3CKUuJwXE"
        }
      ],
      "services": {
        "analytics_service": {
          "status": 1
        },
        "appinvite_service": {
          "status": 1,
          "other_platform_oauth_client": []
        },
        "ads_service": {
          "status": 1
        }
      }
    }
  ],
  "configuration_version": "1"
}